^C:\USERS\LALO\DESKTOP\FOLDER DESARROLLO\PRINCIPIOSDECG\LINE\LINE.CPP|C:\USERS\LALO\DESKTOP\FOLDER DESARROLLO\PRINCIPIOSDECG\LINE\SRC\APPLICATION.CPP|C:\USERS\LALO\DESKTOP\FOLDER DESARROLLO\PRINCIPIOSDECG\LINE\SRC\PIXEL.CPP|C:\USERS\LALO\DESKTOP\FOLDER DESARROLLO\PRINCIPIOSDECG\LINE\SRC\PLANE.CPP|C:\USERS\LALO\DESKTOP\FOLDER DESARROLLO\PRINCIPIOSDECG\LINE\SRC\SHADERFUNCS.CPP
C:\USERS\LALO\DESKTOP\FOLDER DESARROLLO\PRINCIPIOSDECG\LINE\X64\DEBUG\VC140.PDB
C:\USERS\LALO\DESKTOP\FOLDER DESARROLLO\PRINCIPIOSDECG\LINE\X64\DEBUG\VC140.IDB
C:\USERS\LALO\DESKTOP\FOLDER DESARROLLO\PRINCIPIOSDECG\LINE\X64\DEBUG\LINE.OBJ
C:\USERS\LALO\DESKTOP\FOLDER DESARROLLO\PRINCIPIOSDECG\LINE\X64\DEBUG\APPLICATION.OBJ
C:\USERS\LALO\DESKTOP\FOLDER DESARROLLO\PRINCIPIOSDECG\LINE\X64\DEBUG\PIXEL.OBJ
C:\USERS\LALO\DESKTOP\FOLDER DESARROLLO\PRINCIPIOSDECG\LINE\X64\DEBUG\PLANE.OBJ
C:\USERS\LALO\DESKTOP\FOLDER DESARROLLO\PRINCIPIOSDECG\LINE\X64\DEBUG\SHADERFUNCS.OBJ
^C:\USERS\LALO\DESKTOP\FOLDER DESARROLLO\PRINCIPIOSDECG\LINE\LINE.CPP
C:\USERS\LALO\DESKTOP\FOLDER DESARROLLO\PRINCIPIOSDECG\LINE\X64\DEBUG\VC140.PDB
C:\USERS\LALO\DESKTOP\FOLDER DESARROLLO\PRINCIPIOSDECG\LINE\X64\DEBUG\VC141.PDB
^C:\USERS\LALO\DESKTOP\FOLDER DESARROLLO\PRINCIPIOSDECG\LINE\SRC\APPLICATION.CPP
C:\USERS\LALO\DESKTOP\FOLDER DESARROLLO\PRINCIPIOSDECG\LINE\X64\DEBUG\VC140.PDB
C:\USERS\LALO\DESKTOP\FOLDER DESARROLLO\PRINCIPIOSDECG\LINE\X64\DEBUG\VC140.IDB
C:\USERS\LALO\DESKTOP\FOLDER DESARROLLO\PRINCIPIOSDECG\LINE\X64\DEBUG\VC141.PDB
C:\USERS\LALO\DESKTOP\FOLDER DESARROLLO\PRINCIPIOSDECG\LINE\X64\DEBUG\VC141.IDB
C:\USERS\LALO\DESKTOP\FOLDER DESARROLLO\PRINCIPIOSDECG\LINE\X64\DEBUG\APPLICATION.OBJ
^C:\USERS\LALO\DESKTOP\FOLDER DESARROLLO\PRINCIPIOSDECG\LINE\SRC\PIXEL.CPP
C:\USERS\LALO\DESKTOP\FOLDER DESARROLLO\PRINCIPIOSDECG\LINE\X64\DEBUG\VC140.PDB
C:\USERS\LALO\DESKTOP\FOLDER DESARROLLO\PRINCIPIOSDECG\LINE\X64\DEBUG\VC141.PDB
^C:\USERS\LALO\DESKTOP\FOLDER DESARROLLO\PRINCIPIOSDECG\LINE\SRC\PLANE.CPP
C:\USERS\LALO\DESKTOP\FOLDER DESARROLLO\PRINCIPIOSDECG\LINE\X64\DEBUG\VC140.PDB
C:\USERS\LALO\DESKTOP\FOLDER DESARROLLO\PRINCIPIOSDECG\LINE\X64\DEBUG\VC141.PDB
^C:\USERS\LALO\DESKTOP\FOLDER DESARROLLO\PRINCIPIOSDECG\LINE\SRC\SHADERFUNCS.CPP
C:\USERS\LALO\DESKTOP\FOLDER DESARROLLO\PRINCIPIOSDECG\LINE\X64\DEBUG\VC140.PDB
C:\USERS\LALO\DESKTOP\FOLDER DESARROLLO\PRINCIPIOSDECG\LINE\X64\DEBUG\VC141.PDB
^C:\USERS\LALO\DESKTOP\FOLDER DESARROLLO\PRINCIPIOSDECG\LINE\SRC\APPLICATION.CPP|C:\USERS\LALO\DESKTOP\FOLDER DESARROLLO\PRINCIPIOSDECG\LINE\SRC\PIXEL.CPP
C:\USERS\LALO\DESKTOP\FOLDER DESARROLLO\PRINCIPIOSDECG\LINE\X64\DEBUG\VC140.PDB
C:\USERS\LALO\DESKTOP\FOLDER DESARROLLO\PRINCIPIOSDECG\LINE\X64\DEBUG\VC140.IDB
C:\USERS\LALO\DESKTOP\FOLDER DESARROLLO\PRINCIPIOSDECG\LINE\X64\DEBUG\APPLICATION.OBJ
C:\USERS\LALO\DESKTOP\FOLDER DESARROLLO\PRINCIPIOSDECG\LINE\X64\DEBUG\PIXEL.OBJ
^C:\USERS\LALO\DESKTOP\FOLDER DESARROLLO\PRINCIPIOSDECG\LINE\MIDLINE.CPP
C:\USERS\LALO\DESKTOP\FOLDER DESARROLLO\PRINCIPIOSDECG\LINE\X64\DEBUG\VC140.PDB
C:\USERS\LALO\DESKTOP\FOLDER DESARROLLO\PRINCIPIOSDECG\LINE\X64\DEBUG\VC140.IDB
C:\USERS\LALO\DESKTOP\FOLDER DESARROLLO\PRINCIPIOSDECG\LINE\X64\DEBUG\VC141.PDB
C:\USERS\LALO\DESKTOP\FOLDER DESARROLLO\PRINCIPIOSDECG\LINE\X64\DEBUG\VC141.IDB
C:\USERS\LALO\DESKTOP\FOLDER DESARROLLO\PRINCIPIOSDECG\LINE\X64\DEBUG\MIDLINE.OBJ
^C:\USERS\LALO\DESKTOP\FOLDER DESARROLLO\PRINCIPIOSDECG\LINE\MIDLINE.CPP|C:\USERS\LALO\DESKTOP\FOLDER DESARROLLO\PRINCIPIOSDECG\LINE\SRC\APPLICATION.CPP|C:\USERS\LALO\DESKTOP\FOLDER DESARROLLO\PRINCIPIOSDECG\LINE\SRC\PIXEL.CPP
C:\USERS\LALO\DESKTOP\FOLDER DESARROLLO\PRINCIPIOSDECG\LINE\X64\DEBUG\VC140.PDB
C:\USERS\LALO\DESKTOP\FOLDER DESARROLLO\PRINCIPIOSDECG\LINE\X64\DEBUG\VC140.IDB
C:\USERS\LALO\DESKTOP\FOLDER DESARROLLO\PRINCIPIOSDECG\LINE\X64\DEBUG\APPLICATION.OBJ
C:\USERS\LALO\DESKTOP\FOLDER DESARROLLO\PRINCIPIOSDECG\LINE\X64\DEBUG\PIXEL.OBJ
C:\USERS\LALO\DESKTOP\FOLDER DESARROLLO\PRINCIPIOSDECG\LINE\X64\DEBUG\VC141.PDB
C:\USERS\LALO\DESKTOP\FOLDER DESARROLLO\PRINCIPIOSDECG\LINE\X64\DEBUG\VC141.IDB
C:\USERS\LALO\DESKTOP\FOLDER DESARROLLO\PRINCIPIOSDECG\LINE\X64\DEBUG\MIDLINE.OBJ
^C:\USERS\LALO\DESKTOP\FOLDER DESARROLLO\PRINCIPIOSDECG\LINE\MIDLINE.CPP|C:\USERS\LALO\DESKTOP\FOLDER DESARROLLO\PRINCIPIOSDECG\LINE\SRC\APPLICATION.CPP
C:\USERS\LALO\DESKTOP\FOLDER DESARROLLO\PRINCIPIOSDECG\LINE\X64\DEBUG\VC140.PDB
C:\USERS\LALO\DESKTOP\FOLDER DESARROLLO\PRINCIPIOSDECG\LINE\X64\DEBUG\VC140.IDB
C:\USERS\LALO\DESKTOP\FOLDER DESARROLLO\PRINCIPIOSDECG\LINE\X64\DEBUG\MIDLINE.OBJ
C:\USERS\LALO\DESKTOP\FOLDER DESARROLLO\PRINCIPIOSDECG\LINE\X64\DEBUG\APPLICATION.OBJ
^C:\USERS\LALO\DESKTOP\FOLDER DESARROLLO\PRINCIPIOSDECG\LINE\LINE.CPP|C:\USERS\LALO\DESKTOP\FOLDER DESARROLLO\PRINCIPIOSDECG\LINE\MIDLINE.CPP|C:\USERS\LALO\DESKTOP\FOLDER DESARROLLO\PRINCIPIOSDECG\LINE\SRC\APPLICATION.CPP|C:\USERS\LALO\DESKTOP\FOLDER DESARROLLO\PRINCIPIOSDECG\LINE\SRC\PIXEL.CPP|C:\USERS\LALO\DESKTOP\FOLDER DESARROLLO\PRINCIPIOSDECG\LINE\SRC\PLANE.CPP|C:\USERS\LALO\DESKTOP\FOLDER DESARROLLO\PRINCIPIOSDECG\LINE\SRC\SHADERFUNCS.CPP
C:\USERS\LALO\DESKTOP\FOLDER DESARROLLO\PRINCIPIOSDECG\LINE\X64\DEBUG\VC141.PDB
C:\USERS\LALO\DESKTOP\FOLDER DESARROLLO\PRINCIPIOSDECG\LINE\X64\DEBUG\VC141.IDB
C:\USERS\LALO\DESKTOP\FOLDER DESARROLLO\PRINCIPIOSDECG\LINE\X64\DEBUG\LINE.OBJ
C:\USERS\LALO\DESKTOP\FOLDER DESARROLLO\PRINCIPIOSDECG\LINE\X64\DEBUG\MIDLINE.OBJ
C:\USERS\LALO\DESKTOP\FOLDER DESARROLLO\PRINCIPIOSDECG\LINE\X64\DEBUG\APPLICATION.OBJ
C:\USERS\LALO\DESKTOP\FOLDER DESARROLLO\PRINCIPIOSDECG\LINE\X64\DEBUG\PIXEL.OBJ
C:\USERS\LALO\DESKTOP\FOLDER DESARROLLO\PRINCIPIOSDECG\LINE\X64\DEBUG\PLANE.OBJ
C:\USERS\LALO\DESKTOP\FOLDER DESARROLLO\PRINCIPIOSDECG\LINE\X64\DEBUG\SHADERFUNCS.OBJ
^C:\USERS\LALO\DESKTOP\FOLDER DESARROLLO\PRINCIPIOSDECG\LINE\SIERSPINSKY.CPP
C:\USERS\LALO\DESKTOP\FOLDER DESARROLLO\PRINCIPIOSDECG\LINE\X64\DEBUG\VC141.PDB
C:\USERS\LALO\DESKTOP\FOLDER DESARROLLO\PRINCIPIOSDECG\LINE\X64\DEBUG\VC141.IDB
C:\USERS\LALO\DESKTOP\FOLDER DESARROLLO\PRINCIPIOSDECG\LINE\X64\DEBUG\SIERSPINSKY.OBJ
